waveform.vcd
$version Generated by VerilatedVcd $end
$timescale 1ps $end
 $scope module TOP $end
  $var wire 1 5! clk $end
  $var wire 1 6! rst_n $end
  $var wire 32 7! rom_addr [31:0] $end
  $scope module riscv_top $end
   $var wire 1 5! clk $end
   $var wire 1 6! rst_n $end
   $var wire 32 7! rom_addr [31:0] $end
   $var wire 32 D ram_addr [31:0] $end
   $var wire 32 E instr [31:0] $end
   $var wire 32 8! Rd_mem_data [31:0] $end
   $var wire 32 F Wr_mem_data [31:0] $end
   $var wire 1 G W_en $end
   $var wire 1 H R_en $end
   $var wire 3 I RW_type [2:0] $end
   $scope module data_memory_inst $end
    $var wire 1 5! clk $end
    $var wire 1 6! rst_n $end
    $var wire 1 G W_en $end
    $var wire 1 H R_en $end
    $var wire 32 D addr [31:0] $end
    $var wire 3 I RW_type [2:0] $end
    $var wire 32 F din [31:0] $end
    $var wire 32 8! dout [31:0] $end
    $var wire 32 J Rd_data [31:0] $end
    $var wire 32 D addr_ram [31:0] $end
    $var wire 32 K Wr_data_B [31:0] $end
    $var wire 32 L Wr_data_H [31:0] $end
    $var wire 32 M Wr_data [31:0] $end
    $var wire 8 N Rd_data_B [7:0] $end
    $var wire 16 O Rd_data_H [15:0] $end
    $var wire 32 P Rd_data_B_ext [31:0] $end
    $var wire 32 Q Rd_data_H_ext [31:0] $end
   $upscope $end
   $scope module instr_memory_inst $end
    $var wire 32 7! addr [31:0] $end
    $var wire 32 E instr [31:0] $end
    $var wire 32 R addrs [31:0] $end
   $upscope $end
   $scope module riscv_inst $end
    $var wire 1 5! clk $end
    $var wire 1 6! rst_n $end
    $var wire 32 E instr [31:0] $end
    $var wire 32 8! Rd_mem_data [31:0] $end
    $var wire 32 7! rom_addr [31:0] $end
    $var wire 32 F Wr_mem_data [31:0] $end
    $var wire 1 G W_en $end
    $var wire 1 H R_en $end
    $var wire 32 D ram_addr [31:0] $end
    $var wire 3 I RW_type [2:0] $end
    $var wire 7 S opcode [6:0] $end
    $var wire 3 I func3 [2:0] $end
    $var wire 1 T func7 $end
    $var wire 1 H MemtoReg $end
    $var wire 1 U ALUSrc $end
    $var wire 1 V RegWrite $end
    $var wire 1 W lui $end
    $var wire 1 X U_type $end
    $var wire 1 Y jal $end
    $var wire 1 Z jalr $end
    $var wire 1 [ beq $end
    $var wire 1 \ bne $end
    $var wire 1 ] blt $end
    $var wire 1 ^ bge $end
    $var wire 1 _ bltu $end
    $var wire 1 ` bgeu $end
    $var wire 4 a ALUctl [3:0] $end
    $scope module control_inst $end
     $var wire 7 S opcode [6:0] $end
     $var wire 3 I func3 [2:0] $end
     $var wire 1 T func7 $end
     $var wire 1 H MemRead $end
     $var wire 1 H MemtoReg $end
     $var wire 1 G MemWrite $end
     $var wire 1 U ALUSrc $end
     $var wire 1 V RegWrite $end
     $var wire 1 W lui $end
     $var wire 1 X U_type $end
     $var wire 1 Y jal $end
     $var wire 1 Z jalr $end
     $var wire 1 [ beq $end
     $var wire 1 \ bne $end
     $var wire 1 ] blt $end
     $var wire 1 ^ bge $end
     $var wire 1 _ bltu $end
     $var wire 1 ` bgeu $end
     $var wire 3 I RW_type [2:0] $end
     $var wire 4 a ALUctl [3:0] $end
     $var wire 2 b ALUop [1:0] $end
     $scope module alu_control_inst $end
      $var wire 2 b ALUop [1:0] $end
      $var wire 3 I func3 [2:0] $end
      $var wire 1 T func7 $end
      $var wire 4 a ALUctl [3:0] $end
      $var wire 4 c branchop [3:0] $end
      $var wire 4 d RIop [3:0] $end
     $upscope $end
     $scope module main_control_inst $end
      $var wire 7 S opcode [6:0] $end
      $var wire 3 I func3 [2:0] $end
      $var wire 1 H MemRead $end
      $var wire 1 H MemtoReg $end
      $var wire 2 b ALUop [1:0] $end
      $var wire 1 G MemWrite $end
      $var wire 1 U ALUSrc $end
      $var wire 1 V RegWrite $end
      $var wire 1 W lui $end
      $var wire 1 X U_type $end
      $var wire 1 Y jal $end
      $var wire 1 Z jalr $end
      $var wire 1 [ beq $end
      $var wire 1 \ bne $end
      $var wire 1 ] blt $end
      $var wire 1 ^ bge $end
      $var wire 1 _ bltu $end
      $var wire 1 ` bgeu $end
      $var wire 3 I RW_type [2:0] $end
      $var wire 1 e branch $end
      $var wire 1 f R_type $end
      $var wire 1 g I_type $end
      $var wire 1 H load $end
      $var wire 1 G store $end
      $var wire 1 h auipc $end
     $upscope $end
    $upscope $end
    $scope module datapath_inst $end
     $var wire 1 5! clk $end
     $var wire 1 6! rst_n $end
     $var wire 32 E instr [31:0] $end
     $var wire 1 H MemtoReg $end
     $var wire 1 U ALUSrc $end
     $var wire 1 V RegWrite $end
     $var wire 1 W lui $end
     $var wire 1 X U_type $end
     $var wire 1 Y jal $end
     $var wire 1 Z jalr $end
     $var wire 1 [ beq $end
     $var wire 1 \ bne $end
     $var wire 1 ] blt $end
     $var wire 1 ^ bge $end
     $var wire 1 _ bltu $end
     $var wire 1 ` bgeu $end
     $var wire 4 a ALUctl [3:0] $end
     $var wire 32 8! Rd_mem_data [31:0] $end
     $var wire 32 7! rom_addr [31:0] $end
     $var wire 32 F Wr_mem_data [31:0] $end
     $var wire 32 D ALU_result [31:0] $end
     $var wire 7 S opcode [6:0] $end
     $var wire 3 I func3 [2:0] $end
     $var wire 1 T func7 $end
     $var wire 5 i Rs1 [4:0] $end
     $var wire 5 j Rs2 [4:0] $end
     $var wire 5 k Rd [4:0] $end
     $var wire 32 l imme [31:0] $end
     $var wire 32 9! Wr_reg_data [31:0] $end
     $var wire 32 m Rd_data1 [31:0] $end
     $var wire 32 F Rd_data2 [31:0] $end
     $var wire 1 n zero $end
     $var wire 32 o pc_order [31:0] $end
     $var wire 32 p pc_jump [31:0] $end
     $var wire 32 q pc_new [31:0] $end
     $var wire 32 r pc_out [31:0] $end
     $var wire 1 s jump_flag $end
     $var wire 32 t ALU_DB [31:0] $end
     $var wire 32 :! WB_data [31:0] $end
     $var wire 1 u reg_sel $end
     $var wire 32 v Wr_reg_data1 [31:0] $end
     $var wire 32 ;! Wr_reg_data2 [31:0] $end
     $var wire 32 w pc_jump_order [31:0] $end
     $var wire 32 x pc_jalr [31:0] $end
     $scope module ALU_data_mux $end
      $var wire 32 l data1 [31:0] $end
      $var wire 32 F data2 [31:0] $end
      $var wire 1 U sel $end
      $var wire 32 t dout [31:0] $end
     $upscope $end
     $scope module WB_data_mux $end
      $var wire 32 8! data1 [31:0] $end
      $var wire 32 D data2 [31:0] $end
      $var wire 1 H sel $end
      $var wire 32 :! dout [31:0] $end
     $upscope $end
     $scope module Wr_reg_mux $end
      $var wire 32 v data1 [31:0] $end
      $var wire 32 ;! data2 [31:0] $end
      $var wire 1 X sel $end
      $var wire 32 9! dout [31:0] $end
     $upscope $end
     $scope module alu_inst $end
      $var wire 32 m ALU_DA [31:0] $end
      $var wire 32 t ALU_DB [31:0] $end
      $var wire 4 a ALU_CTL [3:0] $end
      $var wire 1 n ALU_ZERO $end
      $var wire 1 y ALU_OverFlow $end
      $var wire 32 D ALU_DC [31:0] $end
      $var wire 1 z SUBctr $end
      $var wire 1 { SIGctr $end
      $var wire 1 | Ovctr $end
      $var wire 2 } Opctr [1:0] $end
      $var wire 2 ~ Logicctr [1:0] $end
      $var wire 2 ~ Shiftctr [1:0] $end
      $var wire 32 !! logic_result [31:0] $end
      $var wire 5 "! ALU_SHIFT [4:0] $end
      $var wire 32 #! shift_result [31:0] $end
      $var wire 32 $! BIT_M [31:0] $end
      $var wire 32 %! XOR_M [31:0] $end
      $var wire 1 &! ADD_carry $end
      $var wire 1 '! ADD_OverFlow $end
      $var wire 32 (! ADD_result [31:0] $end
      $var wire 32 )! SLT_result [31:0] $end
      $var wire 1 *! LESS_M1 $end
      $var wire 1 +! LESS_M2 $end
      $var wire 1 ,! LESS_S $end
      $var wire 1 <! SLT_M $end
      $scope module Adder $end
       $var wire 32 m A [31:0] $end
       $var wire 32 %! B [31:0] $end
       $var wire 1 z Cin $end
       $var wire 4 a ALU_CTL [3:0] $end
       $var wire 1 &! ADD_carry $end
       $var wire 1 '! ADD_OverFlow $end
       $var wire 1 n ADD_zero $end
       $var wire 32 (! ADD_result [31:0] $end
      $upscope $end
      $scope module Shifter $end
       $var wire 32 m ALU_DA [31:0] $end
       $var wire 5 "! ALU_SHIFT [4:0] $end
       $var wire 2 ~ Shiftctr [1:0] $end
       $var wire 32 #! shift_result [31:0] $end
       $var wire 6 -! shift_n [5:0] $end
      $upscope $end
     $upscope $end
     $scope module instr_decode_inst $end
      $var wire 32 E instr [31:0] $end
      $var wire 7 S opcode [6:0] $end
      $var wire 3 I func3 [2:0] $end
      $var wire 1 T func7 $end
      $var wire 5 i Rs1 [4:0] $end
      $var wire 5 j Rs2 [4:0] $end
      $var wire 5 k Rd [4:0] $end
      $var wire 32 l imme [31:0] $end
      $var wire 1 .! I_type $end
      $var wire 1 X U_type $end
      $var wire 1 Y J_type $end
      $var wire 1 e B_type $end
      $var wire 1 G S_type $end
      $var wire 32 /! I_imme [31:0] $end
      $var wire 32 0! U_imme [31:0] $end
      $var wire 32 1! J_imme [31:0] $end
      $var wire 32 2! B_imme [31:0] $end
      $var wire 32 3! S_imme [31:0] $end
      $var wire 1 4! ebreak $end
     $upscope $end
     $scope module jalr_mux $end
      $var wire 32 o data1 [31:0] $end
      $var wire 32 :! data2 [31:0] $end
      $var wire 1 u sel $end
      $var wire 32 ;! dout [31:0] $end
     $upscope $end
     $scope module lui_mux $end
      $var wire 32 l data1 [31:0] $end
      $var wire 32 p data2 [31:0] $end
      $var wire 1 W sel $end
      $var wire 32 v dout [31:0] $end
     $upscope $end
     $scope module pc_jalr_mux $end
      $var wire 32 x data1 [31:0] $end
      $var wire 32 w data2 [31:0] $end
      $var wire 1 Z sel $end
      $var wire 32 q dout [31:0] $end
     $upscope $end
     $scope module pc_mux $end
      $var wire 32 p data1 [31:0] $end
      $var wire 32 o data2 [31:0] $end
      $var wire 1 s sel $end
      $var wire 32 w dout [31:0] $end
     $upscope $end
     $scope module pc_reg_inst $end
      $var wire 1 5! clk $end
      $var wire 1 6! rst_n $end
      $var wire 32 q pc_new [31:0] $end
      $var wire 32 r pc_out [31:0] $end
     $upscope $end
     $scope module registers_inst $end
      $var wire 1 5! clk $end
      $var wire 1 V W_en $end
      $var wire 5 i Rs1 [4:0] $end
      $var wire 5 j Rs2 [4:0] $end
      $var wire 5 k Rd [4:0] $end
      $var wire 32 9! Wr_data [31:0] $end
      $var wire 1 6! rst_n $end
      $var wire 32 m Rd_data1 [31:0] $end
      $var wire 32 F Rd_data2 [31:0] $end
      $var wire 32 # regs[0] [31:0] $end
      $var wire 32 $ regs[1] [31:0] $end
      $var wire 32 % regs[2] [31:0] $end
      $var wire 32 & regs[3] [31:0] $end
      $var wire 32 ' regs[4] [31:0] $end
      $var wire 32 ( regs[5] [31:0] $end
      $var wire 32 ) regs[6] [31:0] $end
      $var wire 32 * regs[7] [31:0] $end
      $var wire 32 + regs[8] [31:0] $end
      $var wire 32 , regs[9] [31:0] $end
      $var wire 32 - regs[10] [31:0] $end
      $var wire 32 . regs[11] [31:0] $end
      $var wire 32 / regs[12] [31:0] $end
      $var wire 32 0 regs[13] [31:0] $end
      $var wire 32 1 regs[14] [31:0] $end
      $var wire 32 2 regs[15] [31:0] $end
      $var wire 32 3 regs[16] [31:0] $end
      $var wire 32 4 regs[17] [31:0] $end
      $var wire 32 5 regs[18] [31:0] $end
      $var wire 32 6 regs[19] [31:0] $end
      $var wire 32 7 regs[20] [31:0] $end
      $var wire 32 8 regs[21] [31:0] $end
      $var wire 32 9 regs[22] [31:0] $end
      $var wire 32 : regs[23] [31:0] $end
      $var wire 32 ; regs[24] [31:0] $end
      $var wire 32 < regs[25] [31:0] $end
      $var wire 32 = regs[26] [31:0] $end
      $var wire 32 > regs[27] [31:0] $end
      $var wire 32 ? regs[28] [31:0] $end
      $var wire 32 @ regs[29] [31:0] $end
      $var wire 32 A regs[30] [31:0] $end
      $var wire 32 B regs[31] [31:0] $end
      $var wire 32 C i [31:0] $end
     $upscope $end
    $upscope $end
   $upscope $end
  $upscope $end
 $upscope $end
$enddefinitions $end


#0
b00000000000000000000000000000000 #
b00000000000000000000000000000000 $
b00000000000000000000000000000000 %
b00000000000000000000000000000000 &
b00000000000000000000000000000000 '
b00000000000000000000000000000000 (
b00000000000000000000000000000000 )
b00000000000000000000000000000000 *
b00000000000000000000000000000000 +
b00000000000000000000000000000000 ,
b00000000000000000000000000000000 -
b00000000000000000000000000000000 .
b00000000000000000000000000000000 /
b00000000000000000000000000000000 0
b00000000000000000000000000000000 1
b00000000000000000000000000000000 2
b00000000000000000000000000000000 3
b00000000000000000000000000000000 4
b00000000000000000000000000000000 5
b00000000000000000000000000000000 6
b00000000000000000000000000000000 7
b00000000000000000000000000000000 8
b00000000000000000000000000000000 9
b00000000000000000000000000000000 :
b00000000000000000000000000000000 ;
b00000000000000000000000000000000 <
b00000000000000000000000000000000 =
b00000000000000000000000000000000 >
b00000000000000000000000000000000 ?
b00000000000000000000000000000000 @
b00000000000000000000000000000000 A
b00000000000000000000000000000000 B
b00000000000000000000000000000000 C
b00000000000000000000000000000000 D
b00000000000000000000010000010011 E
b00000000000000000000000000000000 F
0G
0H
b000 I
b00000000000000000000000000000000 J
b00000000000000000000000000000000 K
b00000000000000000000000000000000 L
b00000000000000000000000000000000 M
b00000000 N
b0000000000000000 O
b00000000000000000000000000000000 P
b00000000000000000000000000000000 Q
b00000000000000000000000000000000 R
b0010011 S
0T
1U
1V
0W
0X
0Y
0Z
0[
0\
0]
0^
0_
0`
b0001 a
b01 b
b0011 c
b0001 d
0e
0f
1g
0h
b00000 i
b00000 j
b01000 k
b00000000000000000000000000000000 l
b00000000000000000000000000000000 m
1n
b00000000000000000000000000000100 o
b00000000000000000000000000000000 p
b00000000000000000000000000000100 q
b00000000000000000000000000000000 r
0s
b00000000000000000000000000000000 t
0u
b00000000000000000000000000000000 v
b00000000000000000000000000000100 w
b00000000000000000000000000000000 x
0y
0z
1{
1|
b00 }
b01 ~
b00000000000000000000000000000000 !!
b00000 "!
b00000000000000000000000000000000 #!
b00000000000000000000000000000000 $!
b00000000000000000000000000000000 %!
0&!
0'!
b00000000000000000000000000000000 (!
b00000000000000000000000000000000 )!
0*!
0+!
0,!
b011111 -!
1.!
b00000000000000000000000000000000 /!
b00000000000000000000000000000000 0!
b00000000000000000000000000000000 1!
b00000000000000000000000000001000 2!
b00000000000000000000000000001000 3!
04!
15!
06!
b00000000000000000000000000000000 7!
b00000000000000000000000000000000 8!
b00000000000000000000000000000000 9!
b00000000000000000000000000000000 :!
b00000000000000000000000000000000 ;!
0<!
#1
05!
#2
b00000000000000001001000100010111 E
b001 I
b00000000000000000000000000000001 R
b0010111 S
0U
1X
b00 b
b1100 d
0g
1h
b00001 i
b00010 k
b00000000000000001001000000000000 l
b00000000000000000000000000001000 o
b00000000000000001001000000000100 p
b00000000000000000000000000001000 q
b00000000000000000000000000000100 r
b00000000000000001001000000000100 v
b00000000000000000000000000001000 w
0.!
b00000000000000001001000000000000 0!
b00000000000000001001000000000000 1!
b00000000000000000000000000000010 2!
b00000000000000000000000000000010 3!
15!
16!
b00000000000000000000000000000100 7!
b00000000000000001001000000000100 9!
#3
05!
#4
b00000000000000001001000000000100 %
b00000000000000001001000000000000 D
b11111111110000010000000100010011 E
b000 I
b00000000000000000000000000000010 R
b0010011 S
1T
1U
0X
b01 b
b0001 d
1g
0h
b00010 i
b11100 j
b11111111111111111111111111111100 l
b00000000000000001001000000000100 m
0n
b00000000000000000000000000001100 o
b00000000000000000000000000000100 p
b00000000000000000000000000001100 q
b00000000000000000000000000001000 r
b11111111111111111111111111111100 t
b00000000000000000000000000000100 v
b00000000000000000000000000001100 w
b00000000000000001001000000000000 x
b11111111111111111111111111111100 !!
b11100 "!
b11111111111111111111111111111100 %!
1&!
b00000000000000001001000000000000 (!
1*!
1.!
b11111111111111111111111111111100 /!
b11111111110000010000000000000000 0!
b11111111111100010000011111111100 1!
b11111111111111111111011111100010 2!
b11111111111111111111111111100010 3!
15!
b00000000000000000000000000001000 7!
b00000000000000001001000000000000 9!
b00000000000000001001000000000000 :!
b00000000000000001001000000000000 ;!
#5
05!
#6
b00000000000000001001000000000000 %
b00000000000000000000000000000000 D
b00010001000000000000000011101111 E
b00000000000000000000000000000011 R
b1101111 S
0T
0U
1Y
b00 b
0g
b00000 i
b10000 j
b00001 k
b00000000000000000000000100010000 l
b00000000000000000000000000000000 m
1n
b00000000000000000000000000010000 o
b00000000000000000000000100011100 p
b00000000000000000000000100011100 q
b00000000000000000000000000001100 r
1s
b00000000000000000000000000000000 t
1u
b00000000000000000000000100011100 v
b00000000000000000000000100011100 w
b00000000000000000000000000000000 x
b00000000000000000000000000000000 !!
b00000 "!
b00000000000000000000000000000000 %!
0&!
b00000000000000000000000000000000 (!
0*!
0.!
b00000000000000000000000100010000 /!
b00010001000000000000000000000000 0!
b00000000000000000000000100010000 1!
b00000000000000000000100100000000 2!
b00000000000000000000000100000001 3!
15!
b00000000000000000000000000001100 7!
b00000000000000000000000000010000 9!
b00000000000000000000000000000000 :!
b00000000000000000000000000010000 ;!
#7
05!
#8
b00000000000000000000000000010000 $
b00000000000000001000111111110100 D
b11111111010000010000000100010011 E
b00000000000000000000000001000111 R
b0010011 S
1T
1U
0Y
b01 b
1g
b00010 i
b10100 j
b00010 k
b11111111111111111111111111110100 l
b00000000000000001001000000000000 m
0n
b00000000000000000000000100100000 o
b00000000000000000000000100010000 p
b00000000000000000000000100100000 q
b00000000000000000000000100011100 r
0s
b11111111111111111111111111110100 t
0u
b00000000000000000000000100010000 v
b00000000000000000000000100100000 w
b00000000000000001000111111110100 x
b11111111111111111111111111110100 !!
b10100 "!
b11111111111111111111111111110100 %!
1&!
b00000000000000001000111111110100 (!
1*!
1.!
b11111111111111111111111111110100 /!
b11111111010000010000000000000000 0!
b11111111111100010000011111110100 1!
b11111111111111111111011111100010 2!
b11111111111111111111111111100010 3!
15!
b00000000000000000000000100011100 7!
b00000000000000001000111111110100 9!
b00000000000000001000111111110100 :!
b00000000000000001000111111110100 ;!
#9
05!
#10
b00000000000000001000111111110100 %
b00000000000000000000000000000000 D
b00000000000000000000010100010111 E
b00000000000000000000000001001000 R
b0010111 S
0T
0U
1X
b00 b
0g
1h
b00000 i
b00000 j
b01010 k
b00000000000000000000000000000000 l
b00000000000000000000000000000000 m
1n
b00000000000000000000000100100100 o
b00000000000000000000000100100000 p
b00000000000000000000000100100100 q
b00000000000000000000000100100000 r
b00000000000000000000000000000000 t
b00000000000000000000000100100000 v
b00000000000000000000000100100100 w
b00000000000000000000000000000000 x
b00000000000000000000000000000000 !!
b00000 "!
b00000000000000000000000000000000 %!
0&!
b00000000000000000000000000000000 (!
0*!
0.!
b00000000000000000000000000000000 /!
b00000000000000000000000000000000 0!
b00000000000000000000000000000000 1!
b00000000000000000000000000001010 2!
b00000000000000000000000000001010 3!
15!
b00000000000000000000000100100000 7!
b00000000000000000000000100100000 9!
b00000000000000000000000000000000 :!
b00000000000000000000000000000000 ;!
#11
05!
#12
b00000000000000000000000100100000 -
b00000000000000000000000100111100 D
b00000001110001010000010100010011 E
b00000000000000000000000001001001 R
b0010011 S
1U
0X
b01 b
1g
0h
b01010 i
b11100 j
b00000000000000000000000000011100 l
b00000000000000000000000100100000 m
0n
b00000000000000000000000100101000 o
b00000000000000000000000101000000 p
b00000000000000000000000100101000 q
b00000000000000000000000100100100 r
b00000000000000000000000000011100 t
b00000000000000000000000101000000 v
b00000000000000000000000100101000 w
b00000000000000000000000100111100 x
b00000000000000000000000100111100 !!
b11100 "!
b00000000000000000000000000011100 %!
b00000000000000000000000100111100 (!
1.!
b00000000000000000000000000011100 /!
b00000001110001010000000000000000 0!
b00000000000001010000000000011100 1!
15!
b00000000000000000000000100100100 7!
b00000000000000000000000100111100 9!
b00000000000000000000000100111100 :!
b00000000000000000000000100111100 ;!
#13
05!
#14
b00000000000000000000000100111100 -
b00000000000000001000111111111100 D
b00000000000100010010010000100011 E
b00000000000000000000000000010000 F
1G
b010 I
b00000000000000000000000000010000 K
b00000000000000000000000000010000 L
b00000000000000000000000000010000 M
b00000000000000000000000001001010 R
b0100011 S
0V
b00 b
b1001 c
b1001 d
0g
b00010 i
b00001 j
b01000 k
b00000000000000000000000000001000 l
b00000000000000001000111111110100 m
b00000000000000000000000100101100 o
b00000000000000000000000100110000 p
b00000000000000000000000100101100 q
b00000000000000000000000100101000 r
b00000000000000000000000000001000 t
b00000000000000000000000100110000 v
b00000000000000000000000100101100 w
b00000000000000001000111111111100 x
b00000000000000001000111111111100 !!
b01000 "!
b00000000000000000000000010001111 #!
b00000000000000000000000000001000 %!
b00000000000000001000111111111100 (!
0.!
b00000000000000000000000000000001 /!
b00000000000100010010000000000000 0!
b00000000000000010010100000000000 1!
b00000000000000000000000000001000 2!
b00000000000000000000000000001000 3!
15!
b00000000000000000000000100101000 7!
b00000000000000001000111111111100 9!
b00000000000000001000111111111100 :!
b00000000000000001000111111111100 ;!
#15
05!
#16
b00000000000000000000000000000000 D
b11101111110111111111000011101111 E
b00000000000000000000000000000000 F
0G
b111 I
b00000000000000000000000000000000 K
b00000000000000000000000000000000 L
b00000000000000000000000000000000 M
b00000000000000000000000001001011 R
b1101111 S
1T
0U
1V
1Y
b1000 c
b0100 d
b11111 i
b11101 j
b00001 k
b11111111111111111111111011111100 l
b00000000000000000000000000000000 m
1n
b00000000000000000000000100110000 o
b00000000000000000000000000101000 p
b00000000000000000000000000101000 q
b00000000000000000000000100101100 r
1s
b00000000000000000000000000000000 t
1u
b00000000000000000000000000101000 v
b00000000000000000000000000101000 w
b00000000000000000000000000000000 x
b00000000000000000000000000000000 !!
b00000 "!
b00000000000000000000000000000000 #!
b00000000000000000000000000000000 %!
b00000000000000000000000000000000 (!
b11111111111111111111111011111101 /!
b11101111110111111111000000000000 0!
b11111111111111111111111011111100 1!
b11111111111111111111111011100000 2!
b11111111111111111111111011100001 3!
15!
b00000000000000000000000100101100 7!
b00000000000000000000000100110000 9!
b00000000000000000000000000000000 :!
b00000000000000000000000100110000 ;!
#17
05!
#18
b00000000000000000000000100110000 $
b00000000000000001000111111010100 D
b11111110000000010000000100010011 E
b000 I
b00000000000000000000000000001010 R
b0010011 S
1U
0Y
b01 b
b0011 c
b0001 d
1g
b00010 i
b00000 j
b00010 k
b11111111111111111111111111100000 l
b00000000000000001000111111110100 m
0n
b00000000000000000000000000101100 o
b00000000000000000000000000001000 p
b00000000000000000000000000101100 q
b00000000000000000000000000101000 r
0s
b11111111111111111111111111100000 t
0u
b00000000000000000000000000001000 v
b00000000000000000000000000101100 w
b00000000000000001000111111010100 x
b11111111111111111111111111110100 !!
b00000000000000001000111111110100 #!
b11111111111111111111111111100000 %!
1&!
b00000000000000001000111111010100 (!
1*!
1.!
b11111111111111111111111111100000 /!
b11111110000000010000000000000000 0!
b11111111111100010000011111100000 1!
b11111111111111111111011111100010 2!
b11111111111111111111111111100010 3!
15!
b00000000000000000000000000101000 7!
b00000000000000001000111111010100 9!
b00000000000000001000111111010100 :!
b00000000000000001000111111010100 ;!
#19
05!
#20
b00000000000000001000111111010100 %
b00000000000000000000000000000000 D
b00000000000000000000011110010111 E
b00000000000000000000000000001011 R
b0010111 S
0T
0U
1X
b00 b
0g
1h
b00000 i
b01111 k
b00000000000000000000000000000000 l
b00000000000000000000000000000000 m
1n
b00000000000000000000000000110000 o
b00000000000000000000000000101100 p
b00000000000000000000000000110000 q
b00000000000000000000000000101100 r
b00000000000000000000000000000000 t
b00000000000000000000000000101100 v
b00000000000000000000000000110000 w
b00000000000000000000000000000000 x
b00000000000000000000000000000000 !!
b00000000000000000000000000000000 #!
b00000000000000000000000000000000 %!
0&!
b00000000000000000000000000000000 (!
0*!
0.!
b00000000000000000000000000000000 /!
b00000000000000000000000000000000 0!
b00000000000000000000000000000000 1!
b00000000000000000000100000001110 2!
b00000000000000000000000000001111 3!
15!
b00000000000000000000000000101100 7!
b00000000000000000000000000101100 9!
b00000000000000000000000000000000 :!
b00000000000000000000000000000000 ;!
#21
05!
#22
b00000000000000000000000000101100 2
b00000000000000000000001110000000 D
b00110101010001111000011110010011 E
b00000000000000000000000000001100 R
b0010011 S
1U
0X
b01 b
1g
0h
b01111 i
b10100 j
b00000000000000000000001101010100 l
b00000000000000000000000000101100 m
0n
b00000000000000000000000000110100 o
b00000000000000000000001110000100 p
b00000000000000000000000000110100 q
b00000000000000000000000000110000 r
b00000000000000000000001101010100 t
b00000000000000000000001110000100 v
b00000000000000000000000000110100 w
b00000000000000000000001110000000 x
b00000000000000000000001101111100 !!
b10100 "!
b00000000000000000000001101010100 %!
b00000000000000000000001110000000 (!
1.!
b00000000000000000000001101010100 /!
b00110101010001111000000000000000 0!
b00000000000001111000001101010100 1!
b00000000000000000000101101001110 2!
b00000000000000000000001101001111 3!
15!
b00000000000000000000000000110000 7!
b00000000000000000000001110000000 9!
b00000000000000000000001110000000 :!
b00000000000000000000001110000000 ;!
#23
05!
#24
b00000000000000000000001110000000 2
b00000000000000001000111111100100 D
b00000000111100010010100000100011 E
b00000000000000000000001110000000 F
1G
b010 I
b00000000000000000000000010000000 K
b00000000000000000000001110000000 L
b00000000000000000000001110000000 M
b00000000000000000000000000001101 R
b0100011 S
0V
b00 b
b1001 c
b1001 d
0g
b00010 i
b01111 j
b10000 k
b00000000000000000000000000010000 l
b00000000000000001000111111010100 m
b00000000000000000000000000111000 o
b00000000000000000000000001000100 p
b00000000000000000000000000111000 q
b00000000000000000000000000110100 r
b00000000000000000000000000010000 t
b00000000000000000000000001000100 v
b00000000000000000000000000111000 w
b00000000000000001000111111100100 x
b00000000000000001000111111010100 !!
b10000 "!
b00000000000000000000000000010000 %!
b00000000000000001000111111100100 (!
0.!
b00000000000000000000000000001111 /!
b00000000111100010010000000000000 0!
b00000000000000010010100000001110 1!
b00000000000000000000000000010000 2!
b00000000000000000000000000010000 3!
15!
b00000000000000000000000000110100 7!
b00000000000000001000111111100100 9!
b00000000000000001000111111100100 :!
b00000000000000001000111111100100 ;!
#25
05!
#26
b00000000000000000000000000000000 D
b00000000000000000000011110010111 E
b00000000000000000000000000000000 F
0G
b000 I
b00000000000000000000000000000000 K
b00000000000000000000000000000000 L
b00000000000000000000000000000000 M
b00000000000000000000000000001110 R
b0010111 S
0U
1V
1X
b0011 c
b0001 d
1h
b00000 i
b00000 j
b01111 k
b00000000000000000000000000000000 l
b00000000000000000000000000000000 m
1n
b00000000000000000000000000111100 o
b00000000000000000000000000111000 p
b00000000000000000000000000111100 q
b00000000000000000000000000111000 r
b00000000000000000000000000000000 t
b00000000000000000000000000111000 v
b00000000000000000000000000111100 w
b00000000000000000000000000000000 x
b00000000000000000000000000000000 !!
b00000 "!
b00000000000000000000000000000000 %!
b00000000000000000000000000000000 (!
b00000000000000000000000000000000 /!
b00000000000000000000000000000000 0!
b00000000000000000000000000000000 1!
b00000000000000000000100000001110 2!
b00000000000000000000000000001111 3!
15!
b00000000000000000000000000111000 7!
b00000000000000000000000000111000 9!
b00000000000000000000000000000000 :!
b00000000000000000000000000000000 ;!
#27
05!
#28
b00000000000000000000000000111000 2
b00000000000000000000000110000000 D
b00010100100001111000011110010011 E
b00000000000000000000000000001111 R
b0010011 S
1U
0X
b01 b
1g
0h
b01111 i
b01000 j
b00000000000000000000000101001000 l
b00000000000000000000000000111000 m
0n
b00000000000000000000000001000000 o
b00000000000000000000000110000100 p
b00000000000000000000000001000000 q
b00000000000000000000000000111100 r
b00000000000000000000000101001000 t
b00000000000000000000000110000100 v
b00000000000000000000000001000000 w
b00000000000000000000000110000000 x
b00000000000000000000000101111000 !!
b01000 "!
b00000000000000000000000101001000 %!
b00000000000000000000000110000000 (!
1.!
b00000000000000000000000101001000 /!
b00010100100001111000000000000000 0!
b00000000000001111000000101001000 1!
b00000000000000000000100101001110 2!
b00000000000000000000000101001111 3!
15!
b00000000000000000000000000111100 7!
b00000000000000000000000110000000 9!
b00000000000000000000000110000000 :!
b00000000000000000000000110000000 ;!
#29
05!
#30
b00000000000000000000000110000000 2
b00000000000000001000111111110000 D
b00000000000100010010111000100011 E
b00000000000000000000000100110000 F
1G
b010 I
b00000000000000000000000000110000 K
b00000000000000000000000100110000 L
b00000000000000000000000100110000 M
b00000000000000000000000000010000 R
b0100011 S
0V
b00 b
b1001 c
b1001 d
0g
b00010 i
b00001 j
b11100 k
b00000000000000000000000000011100 l
b00000000000000001000111111010100 m
b00000000000000000000000001000100 o
b00000000000000000000000001011100 p
b00000000000000000000000001000100 q
b00000000000000000000000001000000 r
b00000000000000000000000000011100 t
b00000000000000000000000001011100 v
b00000000000000000000000001000100 w
b00000000000000001000111111110000 x
b00000000000000001000111111011100 !!
b11100 "!
b00000000000000000000000000011100 %!
b00000000000000001000111111110000 (!
0.!
b00000000000000000000000000000001 /!
b00000000000100010010000000000000 0!
b00000000000000010010100000000000 1!
b00000000000000000000000000011100 2!
b00000000000000000000000000011100 3!
15!
b00000000000000000000000001000000 7!
b00000000000000001000111111110000 9!
b00000000000000001000111111110000 :!
b00000000000000001000111111110000 ;!
#31
05!
